Project title
…
Data Summary

library(dlookr)

## 
## Attaching package: 'dlookr'

## The following object is masked from 'package:base':
## 
##     transform

diagnose(mydata)

## # A tibble: 25 x 6
##    variables   types missing_count missing_percent unique_count unique_rate
##    <chr>       <chr>         <int>           <dbl>        <int>       <dbl>
##  1 Index       nume             0               0        43302    1       
##  2 event_uniq fact             0               0        43189    0.997   
##  3 occurrence fact             0               0        39193    0.905   
##  4 reportedda fact             0               0        42662    0.985   
##  5 premisetype fact             0               0            5    0.000115
##  6 offence     fact             0               0            6    0.000139
##  7 reportedye inte             0               0            6    0.000139
##  8 reportedmo fact             0               0           12    0.000277
##  9 reportedday inte             0               0           31    0.000716
## 10 reportedda inte             0               0          366    0.00845 
## #  with 15 more rows
…
